frlemma	F	iFixit	Informatique	Internet	Jardinage	Maison et jardin	Ordinateurs et l'électronique	Passetemps	Passe temps et bricolage	Réseaux sociaux	Science et technologie	Sports et mise en forme	Téléphones et gadgets	Voitures et autres véhicules
pouvoir aussi	1637	27	81	66	286	172	83	211	120	91	137	193	48	122
pouvoir pas	940	13	71	65	73	82	72	85	62	88	58	112	71	88
pouvoir également	884	17	41	72	90	90	60	96	69	50	39	108	63	89
pouvoir même	220	0	4	18	24	34	5	29	7	8	16	43	2	30
pouvoir facilement	203	5	4	14	24	27	8	12	21	5	13	24	3	43
pouvoir ne	196	4	11	8	29	21	11	24	11	12	15	21	7	22
pouvoir alors	137	1	12	17	20	10	10	5	16	8	11	13	6	8
pouvoir ainsi	134	1	6	7	13	11	14	14	9	11	10	20	3	15
pouvoir plus	129	5	9	8	8	7	5	14	9	20	9	11	11	13
pouvoir toujours	128	2	4	7	9	9	10	14	17	14	9	14	7	12
pouvoir ensuite	114	5	9	5	12	8	8	20	12	6	5	9	9	6
pouvoir donc	104	5	2	6	14	13	13	7	7	9	17	4	2	5
pouvoir simplement	85	3	2	6	12	12	5	7	9	8	3	5	2	11
pouvoir maintenant	79	17	14	6	1	0	11	6	6	7	3	1	4	3
pouvoir parfois	78	0	1	5	18	13	3	7	7	3	6	7	2	6
pouvoir bien	73	1	3	6	18	6	4	4	2	2	5	6	0	16
pouvoir tout	59	0	2	4	11	5	1	11	8	2	5	4	1	5
pouvoir généralement	51	0	1	2	13	7	4	3	8	2	3	0	1	7
pouvoir peut-être	51	0	2	4	5	10	4	9	0	2	3	1	1	10
pouvoir très	43	1	4	0	4	4	5	3	4	0	9	4	0	5
pouvoir encore	36	2	1	0	6	7	3	2	2	1	4	3	0	5
pouvoir mieux	26	0	0	1	7	4	0	2	5	0	3	0	1	3
pouvoir éventuellement	24	4	1	2	2	1	0	1	3	2	0	6	0	2
pouvoir rapidement	24	0	0	1	4	1	3	2	2	6	1	2	2	0
pouvoir vraiment	22	0	2	0	0	2	2	0	2	3	3	4	0	4
pouvoir souvent	21	0	2	2	4	0	1	2	1	3	0	3	1	2
pouvoir quand	20	0	0	3	1	1	2	0	2	3	2	4	0	2
pouvoir désormais	19	0	3	4	0	0	3	0	1	3	1	0	3	1
pouvoir toutefois	16	0	1	4	0	2	1	0	1	3	1	3	0	0
pouvoir probablement	15	0	0	2	2	1	0	1	2	1	1	3	1	1
pouvoir rien	13	0	3	1	1	1	1	1	0	1	2	0	0	2
pouvoir cependant	12	0	0	0	1	4	1	0	0	0	1	4	0	1
pouvoir directement	12	0	1	0	2	1	3	1	2	0	0	1	1	0
pouvoir jamais	11	0	2	3	0	2	2	1	0	0	1	0	0	0
pouvoir déjà	10	0	1	1	1	0	1	3	1	0	1	0	0	1
pouvoir potentiellement	10	0	0	2	2	2	0	1	0	0	0	0	0	3
pouvoir seulement	10	0	0	2	2	0	3	0	0	3	0	0	0	0
pouvoir certainement	7	0	1	1	1	0	1	0	0	0	0	2	1	0
pouvoir uniquement	7	0	1	0	1	1	2	2	0	0	0	0	0	0
pouvoir néanmoins	6	0	0	3	0	0	0	1	1	0	0	0	0	1
pouvoir parfaitement	6	0	0	0	0	0	0	3	1	0	0	0	0	2
pouvoir vite	6	0	0	0	1	0	1	0	0	0	0	2	0	2
pouvoir considérablement	5	0	0	2	2	0	0	0	0	0	0	0	0	1
pouvoir correctement	5	0	0	0	0	1	1	0	3	0	0	0	0	0
pouvoir grandement	5	0	1	1	0	2	0	0	0	0	0	1	0	0
pouvoir normalement	5	0	0	0	1	1	0	0	2	0	0	0	0	1
pouvoir plutôt	5	0	0	0	0	1	0	0	0	2	0	1	0	1
pouvoir aisément	4	0	0	0	1	2	0	1	0	0	0	0	0	0
pouvoir complètement	4	0	0	0	0	0	0	0	0	1	1	0	0	2
pouvoir évidemment	4	0	0	0	1	0	0	1	0	0	0	1	0	1
pouvoir gravement	4	0	0	0	0	1	0	0	2	0	0	0	0	1
pouvoir légèrement	4	0	0	1	0	0	1	0	1	0	0	0	0	1
pouvoir malencontreusement	4	4	0	0	0	0	0	0	0	0	0	0	0	0
pouvoir non	4	0	0	1	0	0	3	0	0	0	0	0	0	0
pouvoir presque	4	0	0	2	0	0	0	0	0	0	1	0	0	1
pouvoir beaucoup	3	0	0	0	0	0	0	0	0	0	2	0	0	1
pouvoir finalement	3	0	0	0	0	1	0	0	0	0	0	1	0	1
pouvoir sérieusement	3	2	0	0	0	0	1	0	0	0	0	0	0	0
pouvoir approximativement	2	0	0	0	0	1	0	0	0	0	0	1	0	0
pouvoir aussitôt	2	0	1	0	0	0	0	1	0	0	0	0	0	0
pouvoir autrement	2	0	0	0	0	0	0	0	0	0	0	0	2	0
pouvoir doucement	2	1	0	0	1	0	0	0	0	0	0	0	0	0
pouvoir effectivement	2	0	0	0	0	0	0	0	0	0	0	2	0	0
pouvoir efficacement	2	0	0	0	0	0	0	1	0	0	0	0	0	1
pouvoir entièrement	2	0	0	0	0	0	0	0	0	1	0	0	1	0
pouvoir gratuitement	2	0	0	0	0	1	1	0	0	0	0	0	0	0
pouvoir habituellement	2	0	0	0	0	2	0	0	0	0	0	0	0	0
pouvoir immédiatement	2	0	0	0	0	0	1	0	0	0	1	0	0	0
pouvoir littéralement	2	0	0	0	1	0	0	1	0	0	0	0	0	0
pouvoir mal	2	0	0	0	0	0	0	0	0	0	1	0	0	1
pouvoir nettement	2	0	0	0	0	1	0	0	0	0	1	0	0	0
pouvoir raisonnablement	2	0	0	0	0	0	0	0	0	0	0	2	0	0
pouvoir réellement	2	0	0	0	0	0	0	0	0	0	1	1	0	0
pouvoir théoriquement	2	0	0	1	0	0	0	0	1	0	0	0	0	0
pouvoir totalement	2	0	0	0	1	0	0	0	0	0	0	1	0	0
pouvoir absolument	1	0	0	0	0	0	0	0	0	1	0	0	0	0
pouvoir accidentellement	1	0	0	0	0	0	0	0	0	0	0	0	1	0
pouvoir alternativement	1	0	0	0	0	0	0	1	0	0	0	0	0	0
pouvoir au-dessus	1	0	0	0	0	0	0	0	0	0	0	1	0	0
pouvoir aujourd'hui	1	0	0	0	0	0	0	0	1	0	0	0	0	0
pouvoir automatiquement	1	0	0	1	0	0	0	0	0	0	0	0	0	0
pouvoir carrément	1	0	0	0	0	0	0	0	0	0	0	0	0	1
pouvoir certes	1	0	0	0	0	0	0	0	1	0	0	0	0	0
pouvoir clairement	1	0	0	0	0	0	0	0	0	0	0	0	0	1
pouvoir constamment	1	0	0	0	0	0	1	0	0	0	0	0	0	0
pouvoir davantage	1	0	0	0	0	0	0	1	0	0	0	0	0	0
pouvoir définitivement	1	0	0	0	0	0	1	0	0	0	0	0	0	0
pouvoir délicatement	1	1	0	0	0	0	0	0	0	0	0	0	0	0
pouvoir exceptionnellement	1	0	0	0	1	0	0	0	0	0	0	0	0	0
pouvoir instinctivement	1	0	0	0	0	0	0	0	0	0	0	1	0	0
pouvoir joliment	1	0	0	0	0	1	0	0	0	0	0	0	0	0
pouvoir lentement	1	0	0	0	1	0	0	0	0	0	0	0	0	0
pouvoir librement	1	0	0	1	0	0	0	0	0	0	0	0	0	0
pouvoir malheureusement	1	0	0	0	0	0	0	0	0	0	0	0	0	1
pouvoir momentanément	1	0	0	0	0	0	0	0	0	0	1	0	0	0
pouvoir naturellement	1	0	0	0	0	0	0	0	0	0	0	1	0	0
pouvoir notamment	1	0	0	0	0	0	0	1	0	0	0	0	0	0
pouvoir officiellement	1	0	1	0	0	0	0	0	0	0	0	0	0	0
pouvoir physiquement	1	0	0	0	0	0	0	0	0	0	0	1	0	0
pouvoir progressivement	1	0	0	0	0	0	0	0	1	0	0	0	0	0
pouvoir quasiment	1	0	0	1	0	0	0	0	0	0	0	0	0	0
pouvoir que	1	0	0	0	0	1	0	0	0	0	0	0	0	0
pouvoir quelquefois	1	0	1	0	0	0	0	0	0	0	0	0	0	0
pouvoir sensiblement	1	0	0	0	0	1	0	0	0	0	0	0	0	0
pouvoir si	1	0	0	0	0	0	0	0	0	0	0	0	0	1
pouvoir significativement	1	0	0	1	0	0	0	0	0	0	0	0	0	0
pouvoir statistiquement	1	0	0	0	0	0	0	1	0	0	0	0	0	0
pouvoir sûrement	1	0	0	0	1	0	0	0	0	0	0	0	0	0
pouvoir temporairement	1	0	0	0	0	0	0	0	0	0	0	0	0	1
pouvoir trop	1	0	0	0	1	0	0	0	0	0	0	0	0	0
pouvoir visiblement	1	0	0	0	1	0	0	0	0	0	0	0	0	0
